EESchema Schematic File Version 4
LIBS:Power_Supply_for_Audio-cache
EELAYER 26 0
EELAYER END
$Descr A4 11693 8268
encoding utf-8
Sheet 1 1
Title ""
Date ""
Rev ""
Comp ""
Comment1 ""
Comment2 ""
Comment3 ""
Comment4 ""
$EndDescr
$Comp
L Connector:Conn_01x03_Male J1
U 1 1 5B777C78
P 1150 1850
F 0 "J1" H 1256 2128 50  0000 C CNN
F 1 "27V" H 1256 2037 50  0000 C CNN
F 2 "TerminalBlock:TerminalBlock_bornier-3_P5.08mm" H 1150 1850 50  0001 C CNN
F 3 "~" H 1150 1850 50  0001 C CNN
	1    1150 1850
	1    0    0    -1  
$EndComp
$Comp
L Connector:Conn_01x03_Male J2
U 1 1 5B777D80
P 1200 3500
F 0 "J2" H 1306 3778 50  0000 C CNN
F 1 "14V" H 1306 3687 50  0000 C CNN
F 2 "TerminalBlock:TerminalBlock_bornier-3_P5.08mm" H 1200 3500 50  0001 C CNN
F 3 "~" H 1200 3500 50  0001 C CNN
	1    1200 3500
	1    0    0    -1  
$EndComp
$Comp
L Connector:Conn_01x02_Male J3
U 1 1 5B777E6D
P 1750 5450
F 0 "J3" H 1856 5628 50  0000 C CNN
F 1 "12V" H 1856 5537 50  0000 C CNN
F 2 "TerminalBlock:TerminalBlock_bornier-2_P5.08mm" H 1750 5450 50  0001 C CNN
F 3 "~" H 1750 5450 50  0001 C CNN
	1    1750 5450
	1    0    0    -1  
$EndComp
$Comp
L power:GNDS #PWR03
U 1 1 5B777FC2
P 2250 5650
F 0 "#PWR03" H 2250 5400 50  0001 C CNN
F 1 "GNDS" H 2255 5477 50  0000 C CNN
F 2 "" H 2250 5650 50  0001 C CNN
F 3 "" H 2250 5650 50  0001 C CNN
	1    2250 5650
	1    0    0    -1  
$EndComp
Wire Wire Line
	1550 3700 1550 3500
Wire Wire Line
	1550 3500 1400 3500
$Comp
L power:GND #PWR01
U 1 1 5B778191
P 1500 2050
F 0 "#PWR01" H 1500 1800 50  0001 C CNN
F 1 "GND" H 1505 1877 50  0000 C CNN
F 2 "" H 1500 2050 50  0001 C CNN
F 3 "" H 1500 2050 50  0001 C CNN
	1    1500 2050
	1    0    0    -1  
$EndComp
Wire Wire Line
	1500 2050 1500 1850
Wire Wire Line
	1500 1850 1350 1850
Wire Wire Line
	2200 1550 2200 1450
Wire Wire Line
	2200 1450 1350 1450
Wire Wire Line
	1350 1450 1350 1750
Wire Wire Line
	1350 1950 1350 2300
Wire Wire Line
	1350 2300 2200 2300
Wire Wire Line
	2200 2300 2200 2150
$Comp
L Device:CP C4
U 1 1 5B778478
P 3300 1550
F 0 "C4" H 3418 1596 50  0000 L CNN
F 1 "4700u/63V" H 3418 1505 50  0000 L CNN
F 2 "Capacitor_THT:CP_Radial_D26.0mm_P10.00mm_SnapIn" H 3338 1400 50  0001 C CNN
F 3 "~" H 3300 1550 50  0001 C CNN
	1    3300 1550
	1    0    0    -1  
$EndComp
Wire Wire Line
	1900 1850 1900 2450
Wire Wire Line
	1900 2450 3300 2450
Wire Wire Line
	3300 2450 3300 2200
Wire Wire Line
	2500 1850 2500 1200
Wire Wire Line
	2500 1200 3300 1200
Wire Wire Line
	3300 1200 3300 1400
Wire Wire Line
	3300 1700 3300 1800
$Comp
L power:GND #PWR06
U 1 1 5B77888B
P 3050 2100
F 0 "#PWR06" H 3050 1850 50  0001 C CNN
F 1 "GND" H 3055 1927 50  0000 C CNN
F 2 "" H 3050 2100 50  0001 C CNN
F 3 "" H 3050 2100 50  0001 C CNN
	1    3050 2100
	1    0    0    -1  
$EndComp
Wire Wire Line
	3050 2100 3050 1800
Wire Wire Line
	3050 1800 3300 1800
Connection ~ 3300 1800
Wire Wire Line
	3300 1800 3300 1900
$Comp
L Connector:Conn_01x03_Male J4
U 1 1 5B778BF5
P 6150 1800
F 0 "J4" H 6123 1730 50  0000 R CNN
F 1 "38V" H 6123 1821 50  0000 R CNN
F 2 "TerminalBlock:TerminalBlock_bornier-3_P5.08mm" H 6150 1800 50  0001 C CNN
F 3 "~" H 6150 1800 50  0001 C CNN
	1    6150 1800
	-1   0    0    1   
$EndComp
$Comp
L Device:Fuse F1
U 1 1 5B77975C
P 5600 1200
F 0 "F1" V 5403 1200 50  0000 C CNN
F 1 "6A" V 5494 1200 50  0000 C CNN
F 2 "Fuse:Fuseholder_Cylinder-5x20mm_Schurter_0031_8201_Horizontal_Open" V 5530 1200 50  0001 C CNN
F 3 "~" H 5600 1200 50  0001 C CNN
	1    5600 1200
	0    1    1    0   
$EndComp
$Comp
L Device:Fuse F2
U 1 1 5B779833
P 5600 2450
F 0 "F2" V 5403 2450 50  0000 C CNN
F 1 "6A" V 5494 2450 50  0000 C CNN
F 2 "Fuse:Fuseholder_Cylinder-5x20mm_Schurter_0031_8201_Horizontal_Open" V 5530 2450 50  0001 C CNN
F 3 "~" H 5600 2450 50  0001 C CNN
	1    5600 2450
	0    1    1    0   
$EndComp
Connection ~ 3300 2450
Connection ~ 3300 1200
Wire Wire Line
	5950 1700 5950 1200
Wire Wire Line
	5950 1200 5750 1200
Wire Wire Line
	5950 1900 5950 2450
Wire Wire Line
	5950 2450 5750 2450
$Comp
L Device:D_Bridge_+A-A D2
U 1 1 5B77AAFC
P 2150 3500
F 0 "D2" H 2491 3500 50  0000 L CNN
F 1 "D_Bridge_+-AA" H 2491 3455 50  0001 L CNN
F 2 "Diode_THT:Diode_Bridge_Round_D9.0mm" H 2150 3500 50  0001 C CNN
F 3 "~" H 2150 3500 50  0001 C CNN
	1    2150 3500
	1    0    0    -1  
$EndComp
Wire Wire Line
	2150 3200 2150 3050
Wire Wire Line
	2150 3050 1400 3050
Wire Wire Line
	1400 3050 1400 3400
Wire Wire Line
	1400 3600 1400 4000
Wire Wire Line
	1400 4000 2150 4000
Wire Wire Line
	2150 4000 2150 3800
$Comp
L Device:CP C2
U 1 1 5B77B430
P 2900 3250
F 0 "C2" H 3018 3296 50  0000 L CNN
F 1 "4700uF/25V" H 3018 3205 50  0000 L CNN
F 2 "Capacitor_THT:CP_Radial_D16.0mm_P7.50mm" H 2938 3100 50  0001 C CNN
F 3 "~" H 2900 3250 50  0001 C CNN
	1    2900 3250
	1    0    0    -1  
$EndComp
Wire Wire Line
	2450 3500 2450 2950
Wire Wire Line
	2450 2950 2900 2950
Wire Wire Line
	2900 2950 2900 3100
Wire Wire Line
	1850 3500 1850 4250
Wire Wire Line
	1850 4250 2900 4250
$Comp
L Device:CP C3
U 1 1 5B77C6A2
P 2900 3850
F 0 "C3" H 3018 3896 50  0000 L CNN
F 1 "4700uF/25V" H 3018 3805 50  0000 L CNN
F 2 "Capacitor_THT:CP_Radial_D16.0mm_P7.50mm" H 2938 3700 50  0001 C CNN
F 3 "~" H 2900 3850 50  0001 C CNN
	1    2900 3850
	1    0    0    -1  
$EndComp
Wire Wire Line
	2900 4000 2900 4250
Wire Wire Line
	2900 3700 2900 3550
Wire Wire Line
	2600 3900 2600 3550
Wire Wire Line
	2600 3550 2900 3550
Connection ~ 2900 3550
Wire Wire Line
	2900 3550 2900 3400
$Comp
L Regulator_Linear:LM7815_TO220 U2
U 1 1 5B77DFAE
P 4350 2950
F 0 "U2" H 4350 3192 50  0000 C CNN
F 1 "LM7815_TO220" H 4350 3101 50  0000 C CNN
F 2 "Package_TO_SOT_THT:TO-220-3_Vertical" H 4350 3175 50  0001 C CIN
F 3 "http://www.fairchildsemi.com/ds/LM/LM7805.pdf" H 4350 2900 50  0001 C CNN
	1    4350 2950
	1    0    0    -1  
$EndComp
$Comp
L Regulator_Linear:LM7915_TO220 U3
U 1 1 5B77E02E
P 4350 4250
F 0 "U3" H 4350 4100 50  0000 C CNN
F 1 "LM7915_TO220" H 4350 4009 50  0000 C CNN
F 2 "Package_TO_SOT_THT:TO-220-3_Vertical" H 4350 4050 50  0001 C CIN
F 3 "http://www.fairchildsemi.com/ds/LM/LM7905.pdf" H 4350 4250 50  0001 C CNN
	1    4350 4250
	1    0    0    -1  
$EndComp
Wire Wire Line
	4350 3950 4350 3550
Wire Wire Line
	2900 3550 3750 3550
Connection ~ 4350 3550
Wire Wire Line
	4350 3550 4350 3250
$Comp
L Device:C C7
U 1 1 5B77F1E8
P 3750 3200
F 0 "C7" H 3865 3246 50  0000 L CNN
F 1 "100n" H 3865 3155 50  0000 L CNN
F 2 "Capacitor_THT:C_Disc_D4.3mm_W1.9mm_P5.00mm" H 3788 3050 50  0001 C CNN
F 3 "~" H 3750 3200 50  0001 C CNN
	1    3750 3200
	1    0    0    -1  
$EndComp
$Comp
L Device:C C8
U 1 1 5B77F286
P 3750 3950
F 0 "C8" H 3865 3996 50  0000 L CNN
F 1 "100n" H 3865 3905 50  0000 L CNN
F 2 "Capacitor_THT:C_Disc_D4.3mm_W1.9mm_P5.00mm" H 3788 3800 50  0001 C CNN
F 3 "~" H 3750 3950 50  0001 C CNN
	1    3750 3950
	1    0    0    -1  
$EndComp
$Comp
L Device:C C10
U 1 1 5B77F2CE
P 4900 3200
F 0 "C10" H 5015 3246 50  0000 L CNN
F 1 "100n" H 5015 3155 50  0000 L CNN
F 2 "Capacitor_THT:C_Disc_D4.3mm_W1.9mm_P5.00mm" H 4938 3050 50  0001 C CNN
F 3 "~" H 4900 3200 50  0001 C CNN
	1    4900 3200
	1    0    0    -1  
$EndComp
$Comp
L Device:C C11
U 1 1 5B77F32E
P 4900 3950
F 0 "C11" H 5015 3996 50  0000 L CNN
F 1 "100n" H 5015 3905 50  0000 L CNN
F 2 "Capacitor_THT:C_Disc_D4.3mm_W1.9mm_P5.00mm" H 4938 3800 50  0001 C CNN
F 3 "~" H 4900 3950 50  0001 C CNN
	1    4900 3950
	1    0    0    -1  
$EndComp
Wire Wire Line
	4900 3800 4900 3550
Wire Wire Line
	4350 3550 4900 3550
Connection ~ 4900 3550
Wire Wire Line
	4900 3550 4900 3350
Wire Wire Line
	3750 3350 3750 3550
Connection ~ 3750 3550
Wire Wire Line
	3750 3550 4350 3550
Wire Wire Line
	3750 3550 3750 3800
Wire Wire Line
	3750 3050 3750 2950
Wire Wire Line
	3750 2950 4050 2950
Wire Wire Line
	3750 4100 3750 4250
Wire Wire Line
	3750 4250 4050 4250
Wire Wire Line
	4650 4250 4900 4250
Wire Wire Line
	4900 4250 4900 4100
Wire Wire Line
	4900 3050 4900 2950
Wire Wire Line
	4900 2950 4650 2950
$Comp
L Device:CP C12
U 1 1 5B785035
P 5400 3200
F 0 "C12" H 5518 3246 50  0000 L CNN
F 1 "15u/16V" H 5518 3155 50  0000 L CNN
F 2 "Capacitor_THT:CP_Radial_Tantal_D7.0mm_P5.00mm" H 5438 3050 50  0001 C CNN
F 3 "~" H 5400 3200 50  0001 C CNN
	1    5400 3200
	1    0    0    -1  
$EndComp
$Comp
L Device:CP C13
U 1 1 5B785101
P 5400 3950
F 0 "C13" H 5518 3996 50  0000 L CNN
F 1 "15u/16V" H 5518 3905 50  0000 L CNN
F 2 "Capacitor_THT:CP_Radial_Tantal_D7.0mm_P5.00mm" H 5438 3800 50  0001 C CNN
F 3 "~" H 5400 3950 50  0001 C CNN
	1    5400 3950
	1    0    0    -1  
$EndComp
Wire Wire Line
	5400 3050 5400 2950
Wire Wire Line
	5400 2950 4900 2950
Connection ~ 4900 2950
Wire Wire Line
	5400 3350 5400 3550
Wire Wire Line
	5400 3550 4900 3550
Wire Wire Line
	5400 3800 5400 3550
Connection ~ 5400 3550
Wire Wire Line
	5400 4100 5400 4250
Wire Wire Line
	5400 4250 4900 4250
Connection ~ 4900 4250
Wire Wire Line
	2900 2950 3750 2950
Connection ~ 2900 2950
Connection ~ 3750 2950
Wire Wire Line
	2900 4250 3750 4250
Connection ~ 2900 4250
Connection ~ 3750 4250
$Comp
L Connector:Conn_01x03_Male J6
U 1 1 5B78B5F6
P 6250 3550
F 0 "J6" H 6223 3480 50  0000 R CNN
F 1 "15V" H 6223 3571 50  0000 R CNN
F 2 "TerminalBlock:TerminalBlock_bornier-3_P5.08mm" H 6250 3550 50  0001 C CNN
F 3 "~" H 6250 3550 50  0001 C CNN
	1    6250 3550
	-1   0    0    1   
$EndComp
Wire Wire Line
	6050 3450 6050 2950
Wire Wire Line
	6050 2950 5400 2950
Connection ~ 5400 2950
Wire Wire Line
	5400 4250 6050 4250
Wire Wire Line
	6050 4250 6050 3650
Connection ~ 5400 4250
Wire Wire Line
	6050 3550 5400 3550
$Comp
L Regulator_Linear:LM7812_TO220 U1
U 1 1 5B7907DB
P 4200 5450
F 0 "U1" H 4200 5692 50  0000 C CNN
F 1 "LM7812_TO220" H 4200 5601 50  0000 C CNN
F 2 "Package_TO_SOT_THT:TO-220-3_Vertical" H 4200 5675 50  0001 C CIN
F 3 "http://www.fairchildsemi.com/ds/LM/LM7805.pdf" H 4200 5400 50  0001 C CNN
	1    4200 5450
	1    0    0    -1  
$EndComp
$Comp
L Device:CP C1
U 1 1 5B795356
P 2800 5750
F 0 "C1" H 2918 5796 50  0000 L CNN
F 1 "1500u/25V" H 2918 5705 50  0000 L CNN
F 2 "Capacitor_THT:CP_Radial_D13.0mm_P5.00mm" H 2838 5600 50  0001 C CNN
F 3 "~" H 2800 5750 50  0001 C CNN
	1    2800 5750
	1    0    0    -1  
$EndComp
Wire Wire Line
	2800 5600 2800 5450
$Comp
L power:GNDS #PWR05
U 1 1 5B7970A2
P 2800 5900
F 0 "#PWR05" H 2800 5650 50  0001 C CNN
F 1 "GNDS" H 2805 5727 50  0000 C CNN
F 2 "" H 2800 5900 50  0001 C CNN
F 3 "" H 2800 5900 50  0001 C CNN
	1    2800 5900
	1    0    0    -1  
$EndComp
Connection ~ 2800 5450
$Comp
L power:GNDS #PWR08
U 1 1 5B798D20
P 4200 5750
F 0 "#PWR08" H 4200 5500 50  0001 C CNN
F 1 "GNDS" H 4205 5577 50  0000 C CNN
F 2 "" H 4200 5750 50  0001 C CNN
F 3 "" H 4200 5750 50  0001 C CNN
	1    4200 5750
	1    0    0    -1  
$EndComp
$Comp
L Device:C C6
U 1 1 5B79AAEE
P 3600 5750
F 0 "C6" H 3715 5796 50  0000 L CNN
F 1 "100n" H 3715 5705 50  0000 L CNN
F 2 "Capacitor_THT:C_Disc_D4.3mm_W1.9mm_P5.00mm" H 3638 5600 50  0001 C CNN
F 3 "~" H 3600 5750 50  0001 C CNN
	1    3600 5750
	1    0    0    -1  
$EndComp
$Comp
L power:GNDS #PWR07
U 1 1 5B79AB70
P 3600 5900
F 0 "#PWR07" H 3600 5650 50  0001 C CNN
F 1 "GNDS" H 3605 5727 50  0000 C CNN
F 2 "" H 3600 5900 50  0001 C CNN
F 3 "" H 3600 5900 50  0001 C CNN
	1    3600 5900
	1    0    0    -1  
$EndComp
Wire Wire Line
	2800 5450 3600 5450
Wire Wire Line
	3600 5600 3600 5450
Connection ~ 3600 5450
Wire Wire Line
	3600 5450 3900 5450
$Comp
L Device:C C9
U 1 1 5B79E4CD
P 4700 5750
F 0 "C9" H 4815 5796 50  0000 L CNN
F 1 "100n" H 4815 5705 50  0000 L CNN
F 2 "Capacitor_THT:C_Disc_D4.3mm_W1.9mm_P5.00mm" H 4738 5600 50  0001 C CNN
F 3 "~" H 4700 5750 50  0001 C CNN
	1    4700 5750
	1    0    0    -1  
$EndComp
$Comp
L power:GNDS #PWR09
U 1 1 5B79E541
P 4700 5900
F 0 "#PWR09" H 4700 5650 50  0001 C CNN
F 1 "GNDS" H 4705 5727 50  0000 C CNN
F 2 "" H 4700 5900 50  0001 C CNN
F 3 "" H 4700 5900 50  0001 C CNN
	1    4700 5900
	1    0    0    -1  
$EndComp
Wire Wire Line
	4700 5600 4700 5450
Wire Wire Line
	4700 5450 4500 5450
$Comp
L Connector:Conn_01x02_Male J5
U 1 1 5B7A419F
P 6550 5550
F 0 "J5" H 6523 5430 50  0000 R CNN
F 1 "12V" H 6523 5521 50  0000 R CNN
F 2 "TerminalBlock:TerminalBlock_bornier-2_P5.08mm" H 6550 5550 50  0001 C CNN
F 3 "~" H 6550 5550 50  0001 C CNN
	1    6550 5550
	-1   0    0    1   
$EndComp
$Comp
L power:GNDS #PWR010
U 1 1 5B7A813A
P 6200 5650
F 0 "#PWR010" H 6200 5400 50  0001 C CNN
F 1 "GNDS" H 6205 5477 50  0000 C CNN
F 2 "" H 6200 5650 50  0001 C CNN
F 3 "" H 6200 5650 50  0001 C CNN
	1    6200 5650
	1    0    0    -1  
$EndComp
Wire Wire Line
	6200 5650 6200 5550
Wire Wire Line
	6200 5550 6350 5550
$Comp
L Device:CP C14
U 1 1 5B7AED30
P 5150 5750
F 0 "C14" H 5268 5796 50  0000 L CNN
F 1 "15u/16V" H 5268 5705 50  0000 L CNN
F 2 "Capacitor_THT:CP_Radial_Tantal_D7.0mm_P5.00mm" H 5188 5600 50  0001 C CNN
F 3 "~" H 5150 5750 50  0001 C CNN
	1    5150 5750
	1    0    0    -1  
$EndComp
$Comp
L power:GNDS #PWR0101
U 1 1 5B7AEDC6
P 5150 5900
F 0 "#PWR0101" H 5150 5650 50  0001 C CNN
F 1 "GNDS" H 5155 5727 50  0000 C CNN
F 2 "" H 5150 5900 50  0001 C CNN
F 3 "" H 5150 5900 50  0001 C CNN
	1    5150 5900
	1    0    0    -1  
$EndComp
Wire Wire Line
	5150 5600 5150 5450
Wire Wire Line
	5150 5450 4700 5450
Connection ~ 4700 5450
$Comp
L Device:CP C5
U 1 1 5B7784E4
P 3300 2050
F 0 "C5" H 3418 2096 50  0000 L CNN
F 1 "4700u/63V" H 3418 2005 50  0000 L CNN
F 2 "Capacitor_THT:CP_Radial_D26.0mm_P10.00mm_SnapIn" H 3338 1900 50  0001 C CNN
F 3 "~" H 3300 2050 50  0001 C CNN
	1    3300 2050
	1    0    0    -1  
$EndComp
$Comp
L Device:CP C15
U 1 1 5B7D05E6
P 4000 1550
F 0 "C15" H 4118 1596 50  0000 L CNN
F 1 "4700u/63V" H 4118 1505 50  0000 L CNN
F 2 "Capacitor_THT:CP_Radial_D26.0mm_P10.00mm_SnapIn" H 4038 1400 50  0001 C CNN
F 3 "~" H 4000 1550 50  0001 C CNN
	1    4000 1550
	1    0    0    -1  
$EndComp
$Comp
L Device:CP C16
U 1 1 5B7D063E
P 4000 2050
F 0 "C16" H 4118 2096 50  0000 L CNN
F 1 "4700u/63V" H 4118 2005 50  0000 L CNN
F 2 "Capacitor_THT:CP_Radial_D26.0mm_P10.00mm_SnapIn" H 4038 1900 50  0001 C CNN
F 3 "~" H 4000 2050 50  0001 C CNN
	1    4000 2050
	1    0    0    -1  
$EndComp
Wire Wire Line
	4000 1900 4000 1800
Wire Wire Line
	3300 1800 4000 1800
Connection ~ 4000 1800
Wire Wire Line
	4000 1800 4000 1700
Wire Wire Line
	4000 1400 4000 1200
Wire Wire Line
	3300 1200 4000 1200
Wire Wire Line
	4000 2200 4000 2450
Wire Wire Line
	3300 2450 4000 2450
$Comp
L Device:C C17
U 1 1 5B7E6264
P 4700 1500
F 0 "C17" H 4815 1546 50  0000 L CNN
F 1 "100n" H 4815 1455 50  0000 L CNN
F 2 "Capacitor_SMD:C_1206_3216Metric_Pad1.42x1.75mm_HandSolder" H 4738 1350 50  0001 C CNN
F 3 "~" H 4700 1500 50  0001 C CNN
	1    4700 1500
	1    0    0    -1  
$EndComp
$Comp
L Device:C C18
U 1 1 5B7EB5A1
P 4700 2100
F 0 "C18" H 4815 2146 50  0000 L CNN
F 1 "100n" H 4815 2055 50  0000 L CNN
F 2 "Capacitor_SMD:C_1206_3216Metric_Pad1.42x1.75mm_HandSolder" H 4738 1950 50  0001 C CNN
F 3 "~" H 4700 2100 50  0001 C CNN
	1    4700 2100
	1    0    0    -1  
$EndComp
Wire Wire Line
	4700 1950 4700 1800
Connection ~ 4700 1800
Wire Wire Line
	4700 1800 5200 1800
Wire Wire Line
	4700 1800 4700 1650
Wire Wire Line
	4700 2250 4700 2450
Connection ~ 4700 2450
Wire Wire Line
	4000 2450 4700 2450
Connection ~ 4000 2450
Wire Wire Line
	4000 1800 4700 1800
Wire Wire Line
	4000 1200 4700 1200
Connection ~ 4000 1200
Wire Wire Line
	4700 1350 4700 1200
Connection ~ 4700 1200
$Comp
L power:GND #PWR0102
U 1 1 5B8062FE
P 1550 3700
F 0 "#PWR0102" H 1550 3450 50  0001 C CNN
F 1 "GND" H 1555 3527 50  0000 C CNN
F 2 "" H 1550 3700 50  0001 C CNN
F 3 "" H 1550 3700 50  0001 C CNN
	1    1550 3700
	1    0    0    -1  
$EndComp
$Comp
L power:GND #PWR0103
U 1 1 5B80634B
P 2600 3900
F 0 "#PWR0103" H 2600 3650 50  0001 C CNN
F 1 "GND" H 2605 3727 50  0000 C CNN
F 2 "" H 2600 3900 50  0001 C CNN
F 3 "" H 2600 3900 50  0001 C CNN
	1    2600 3900
	1    0    0    -1  
$EndComp
$Comp
L Device:D D1
U 1 1 5B814EAA
P 2400 5450
F 0 "D1" H 2400 5234 50  0000 C CNN
F 1 "D" H 2400 5325 50  0000 C CNN
F 2 "Diode_THT:D_T-1_P10.16mm_Horizontal" H 2400 5450 50  0001 C CNN
F 3 "~" H 2400 5450 50  0001 C CNN
	1    2400 5450
	-1   0    0    1   
$EndComp
Wire Wire Line
	2550 5450 2800 5450
Wire Wire Line
	1950 5550 2250 5550
Wire Wire Line
	2250 5550 2250 5650
Wire Wire Line
	2250 5450 1950 5450
$Comp
L Device:D_Bridge_-AA+ D3
U 1 1 5B82C80D
P 2200 1850
F 0 "D3" H 2541 1850 50  0000 L CNN
F 1 "D_Bridge_-AA+" H 2541 1805 50  0001 L CNN
F 2 "MyLibrary:Diode_Bridge_18.5x5.5" H 2200 1850 50  0001 C CNN
F 3 "~" H 2200 1850 50  0001 C CNN
	1    2200 1850
	1    0    0    -1  
$EndComp
Wire Wire Line
	4700 1200 5200 1200
Wire Wire Line
	4700 2450 5200 2450
$Comp
L Device:LED D4
U 1 1 5B7D80AC
P 5800 5750
F 0 "D4" V 5838 5633 50  0000 R CNN
F 1 "LED" V 5747 5633 50  0000 R CNN
F 2 "LED_THT:LED_D5.0mm" H 5800 5750 50  0001 C CNN
F 3 "~" H 5800 5750 50  0001 C CNN
	1    5800 5750
	0    -1   -1   0   
$EndComp
Wire Wire Line
	5800 5600 5800 5450
Connection ~ 5800 5450
Wire Wire Line
	5800 5450 6350 5450
Wire Wire Line
	5150 5450 5800 5450
Connection ~ 5150 5450
$Comp
L power:GNDS #PWR0104
U 1 1 5B7DD411
P 5800 6300
F 0 "#PWR0104" H 5800 6050 50  0001 C CNN
F 1 "GNDS" H 5805 6127 50  0000 C CNN
F 2 "" H 5800 6300 50  0001 C CNN
F 3 "" H 5800 6300 50  0001 C CNN
	1    5800 6300
	1    0    0    -1  
$EndComp
Wire Wire Line
	5800 6000 5800 5900
$Comp
L Device:R R1
U 1 1 5B7D7F03
P 5800 6150
F 0 "R1" H 5870 6196 50  0000 L CNN
F 1 "560" H 5870 6105 50  0000 L CNN
F 2 "Resistor_THT:R_Axial_DIN0204_L3.6mm_D1.6mm_P7.62mm_Horizontal" V 5730 6150 50  0001 C CNN
F 3 "~" H 5800 6150 50  0001 C CNN
	1    5800 6150
	1    0    0    -1  
$EndComp
$Comp
L Device:C C19
U 1 1 5B80ABBE
P 5200 1500
F 0 "C19" H 5315 1546 50  0000 L CNN
F 1 "100n" H 5315 1455 50  0000 L CNN
F 2 "Capacitor_SMD:C_1206_3216Metric_Pad1.42x1.75mm_HandSolder" H 5238 1350 50  0001 C CNN
F 3 "~" H 5200 1500 50  0001 C CNN
	1    5200 1500
	1    0    0    -1  
$EndComp
$Comp
L Device:C C20
U 1 1 5B80AC28
P 5200 2100
F 0 "C20" H 5315 2146 50  0000 L CNN
F 1 "100n" H 5315 2055 50  0000 L CNN
F 2 "Capacitor_SMD:C_1206_3216Metric_Pad1.42x1.75mm_HandSolder" H 5238 1950 50  0001 C CNN
F 3 "~" H 5200 2100 50  0001 C CNN
	1    5200 2100
	1    0    0    -1  
$EndComp
Wire Wire Line
	5200 1950 5200 1800
Connection ~ 5200 1800
Wire Wire Line
	5200 1800 5950 1800
Wire Wire Line
	5200 1350 5200 1200
Connection ~ 5200 1200
Wire Wire Line
	5200 1200 5450 1200
Wire Wire Line
	5200 1650 5200 1800
Wire Wire Line
	5200 2250 5200 2450
Connection ~ 5200 2450
Wire Wire Line
	5200 2450 5450 2450
$EndSCHEMATC
