%TF.GenerationSoftware,KiCad,Pcbnew,6.0.0-rc1-unknown-00d912f~84~ubuntu18.04.1*%
%TF.CreationDate,2018-08-27T13:06:27+03:00*%
%TF.ProjectId,Power_Supply_for_Audio,506F7765725F537570706C795F666F72,rev?*%
%TF.SameCoordinates,Original*%
%TF.FileFunction,Profile,NP*%
%FSLAX46Y46*%
G04 Gerber Fmt 4.6, Leading zero omitted, Abs format (unit mm)*
G04 Created by KiCad (PCBNEW 6.0.0-rc1-unknown-00d912f~84~ubuntu18.04.1) date Mon Aug 27 13:06:27 2018*
%MOMM*%
%LPD*%
G01*
G04 APERTURE LIST*
%ADD10C,1.000000*%
G04 APERTURE END LIST*
D10*
X139700000Y-133350000D02*
X139700000Y-24130000D01*
X25400000Y-133350000D02*
X139700000Y-133350000D01*
X25400000Y-24130000D02*
X25400000Y-133350000D01*
X139700000Y-24130000D02*
X25400000Y-24130000D01*
M02*
