%TF.GenerationSoftware,KiCad,Pcbnew,6.0.0-rc1-unknown-00d912f~84~ubuntu18.04.1*%
%TF.CreationDate,2018-08-27T13:06:26+03:00*%
%TF.ProjectId,Power_Supply_for_Audio,506F7765725F537570706C795F666F72,rev?*%
%TF.SameCoordinates,Original*%
%TF.FileFunction,Copper,L1,Top,Signal*%
%TF.FilePolarity,Positive*%
%FSLAX46Y46*%
G04 Gerber Fmt 4.6, Leading zero omitted, Abs format (unit mm)*
G04 Created by KiCad (PCBNEW 6.0.0-rc1-unknown-00d912f~84~ubuntu18.04.1) date Mon Aug 27 13:06:26 2018*
%MOMM*%
%LPD*%
G01*
G04 APERTURE LIST*
%ADD10C,3.000000*%
%ADD11R,1.800000X1.800000*%
%ADD12C,1.800000*%
%ADD13C,1.400000*%
%ADD14O,1.400000X1.400000*%
%ADD15R,2.400000X2.400000*%
%ADD16C,2.400000*%
%ADD17C,4.000000*%
%ADD18R,4.000000X4.000000*%
%ADD19R,1.600000X1.600000*%
%ADD20C,1.600000*%
%ADD21R,2.000000X2.000000*%
%ADD22O,2.000000X2.000000*%
%ADD23R,2.100000X2.100000*%
%ADD24C,2.100000*%
%ADD25R,2.000000X1.905000*%
%ADD26O,2.000000X1.905000*%
%ADD27R,3.000000X3.000000*%
%ADD28C,4.400000*%
G04 APERTURE END LIST*
D10*
X115570000Y-79650000D03*
X115570000Y-57150000D03*
X115570000Y-51435000D03*
X115570000Y-28935000D03*
D11*
X128270000Y-119380000D03*
D12*
X125730000Y-119380000D03*
D13*
X130175000Y-101600000D03*
D14*
X122555000Y-101600000D03*
D15*
X48895000Y-98425000D03*
D16*
X48895000Y-103425000D03*
X64770000Y-95765000D03*
D15*
X64770000Y-88265000D03*
X64770000Y-106045000D03*
D16*
X64770000Y-113545000D03*
D17*
X66040000Y-62390000D03*
D18*
X66040000Y-72390000D03*
X66040000Y-44450000D03*
D17*
X66040000Y-34450000D03*
X95250000Y-62390000D03*
D18*
X95250000Y-72390000D03*
X95250000Y-44450000D03*
D17*
X95250000Y-34450000D03*
D19*
X109220000Y-93345000D03*
D20*
X109220000Y-88345000D03*
X109220000Y-112395000D03*
D19*
X109220000Y-107395000D03*
X109220000Y-127635000D03*
D20*
X109220000Y-122635000D03*
X76280000Y-127555000D03*
X76280000Y-122555000D03*
X76200000Y-88345000D03*
X76200000Y-93345000D03*
X76280000Y-112315000D03*
X76280000Y-107315000D03*
X79455000Y-127635000D03*
X79455000Y-122635000D03*
X79375000Y-88345000D03*
X79375000Y-93345000D03*
X79375000Y-107315000D03*
X79375000Y-112315000D03*
D21*
X38735000Y-95885000D03*
D22*
X38735000Y-106045000D03*
X47545000Y-78740000D03*
X42545000Y-83740000D03*
X47545000Y-83740000D03*
D21*
X42545000Y-78740000D03*
D23*
X45720000Y-61020000D03*
D24*
X45720000Y-55920000D03*
X45720000Y-45720000D03*
X45720000Y-50820000D03*
D25*
X86995000Y-122555000D03*
D26*
X86995000Y-125095000D03*
X86995000Y-127635000D03*
X86995000Y-93345000D03*
X86995000Y-90805000D03*
D25*
X86995000Y-88265000D03*
X86995000Y-107315000D03*
D26*
X86995000Y-109855000D03*
X86995000Y-112395000D03*
D10*
X31750000Y-98425000D03*
D27*
X31750000Y-103505000D03*
X126365000Y-106680000D03*
D10*
X126365000Y-111760000D03*
X127000000Y-59690000D03*
X127000000Y-54610000D03*
D27*
X127000000Y-49530000D03*
X126365000Y-96520000D03*
D10*
X126365000Y-91440000D03*
X126365000Y-86360000D03*
X31750000Y-49530000D03*
X31750000Y-54610000D03*
D27*
X31750000Y-59690000D03*
X31750000Y-75565000D03*
D10*
X31750000Y-80645000D03*
X31750000Y-85725000D03*
D28*
X30480000Y-29210000D03*
X134620000Y-29210000D03*
X134620000Y-128270000D03*
X30480000Y-128270000D03*
M02*
